<?xml version="1.0" encoding="UTF-8"?>
<CustomTab xmlns="http://soap.sforce.com/2006/04/metadata">
    <customObject>true</customObject>
    <description>Address for a particular Role</description>
    <mobileReady>false</mobileReady>
    <motif>Custom85: Real Estate Sign</motif>
</CustomTab>
